[
  {
    "creationDate": 1469632050004,
    "description": "",
    "id": "Replace_1469632050004",
    "name": "mobile images revert",
    "pairs": [
      {
        "from": "localhost:8181/MasterLayout/images/mobile",
        "source": {
          "key": "Url",
          "operator": "Contains",
          "value": ""
        },
        "status": "Inactive",
        "to": "ptestassets76.asosservices.com/MasterLayout/images/mobile"
      }
    ],
    "ruleType": "Replace",
    "status": "Active",
    "version": 2
  },
  {
    "creationDate": 1469628974959,
    "description": "",
    "id": "Redirect_1469628974959",
    "name": "minibag styles",
    "pairs": [
      {
        "destination": "http://localhost:8181/local/minibag.css",
        "source": {
          "key": "Url",
          "operator": "Contains",
          "value": "MasterLayout/Stylesheets/MasterLayout/MasterLayoutBundle.css"
        }
      },
      {
        "destination": "http://localhost:8181/local/minibag.mobile.css",
        "source": {
          "key": "Url",
          "operator": "Contains",
          "value": "MasterLayout/Stylesheets/MasterLayout.Mobile/MasterLayoutBundle.Mobile.css"
        }
      }
    ],
    "ruleType": "Redirect",
    "status": "Active"
  },
  {
    "creationDate": 1469628953845,
    "description": "",
    "id": "Redirect_1469628953845",
    "name": "saved items",
    "pairs": [
      {
        "destination": "http://localhost:8181/local/saveditems.js",
        "source": {
          "key": "Url",
          "operator": "Matches",
          "value": "/.+asosservices\\.com.+savedItems.min.js/i"
        }
      },
      {
        "destination": "http://localhost:8181/local/saveditems.css",
        "source": {
          "key": "Url",
          "operator": "Matches",
          "value": "/.+asosservices\\.com.+saveditems.css/i"
        }
      }
    ],
    "ruleType": "Redirect",
    "status": "Active"
  },
  {
    "creationDate": 1469628927166,
    "description": "",
    "id": "Redirect_1469628927166",
    "name": "bag",
    "pairs": [
      {
        "destination": "http://localhost:8181/local/bag.js",
        "source": {
          "key": "Url",
          "operator": "Matches",
          "value": "/.+asosservices\\.com.+bag.min.js/"
        }
      },
      {
        "destination": "http://localhost:8181/local/bag.css",
        "source": {
          "key": "Url",
          "operator": "Matches",
          "value": "/.+asosservices\\.com.+bag.css/"
        }
      }
    ],
    "ruleType": "Redirect",
    "status": "Active"
  },
  {
    "creationDate": 1469626246744,
    "description": "",
    "id": "Redirect_1469626246744",
    "name": "sdk / minibag",
    "pairs": [
      {
        "destination": "http://localhost:8181/local/masterlayout.js",
        "source": {
          "key": "Url",
          "operator": "Contains",
          "value": "MasterLayout.Sdk.min.js"
        }
      }
    ],
    "ruleType": "Redirect",
    "status": "Active"
  }
]